<?xml version="1.0" encoding="utf-8"?>
<!-- Generator: Adobe Illustrator 16.0.0, SVG Export Plug-In . SVG Version: 6.00 Build 0)  -->
<!DOCTYPE svg PUBLIC "-//W3C//DTD SVG 1.1//EN" "http://www.w3.org/Graphics/SVG/1.1/DTD/svg11.dtd">
<svg version="1.1" id="Layer_1" xmlns="http://www.w3.org/2000/svg" xmlns:xlink="http://www.w3.org/1999/xlink" x="0px" y="0px"
	 width="186px" height="107.85px" viewBox="0 0 186 107.85" enable-background="new 0 0 186 107.85" xml:space="preserve">
<g>
	<defs>
		<rect id="SVGID_1_" width="186" height="107.85"/>
	</defs>
	<clipPath id="SVGID_2_">
		<use xlink:href="#SVGID_1_"  overflow="visible"/>
	</clipPath>
	<path clip-path="url(#SVGID_2_)" fill="#217F95" d="M184.083,57.053L186,53.926l-1.917-3.131
		c-0.321-0.522-8.031-12.968-23.012-25.44C141.147,8.769,117.675,0,93.191,0C68.713,0,45.184,8.764,25.146,25.343
		C10.08,37.808,2.281,50.245,1.957,50.769L0,53.926l1.957,3.156c0.324,0.524,8.123,12.96,23.189,25.427
		c20.038,16.578,43.567,25.342,68.045,25.342c24.483,0,47.956-8.769,67.88-25.354C176.052,70.024,183.762,57.578,184.083,57.053
		 M153.089,73.552c-17.923,14.811-38.076,22.318-59.897,22.318c-21.831,0-42.048-7.513-60.094-22.332
		c-9.332-7.664-15.66-15.424-18.759-19.613c3.101-4.193,9.428-11.952,18.759-19.616C51.143,19.492,71.36,11.978,93.191,11.978
		c21.821,0,41.974,7.51,59.897,22.318c9.291,7.676,15.563,15.448,18.62,19.63C168.649,58.108,162.378,65.879,153.089,73.552"/>
	<path clip-path="url(#SVGID_2_)" fill="#217F95" d="M93.012,17.938c-19.843,0-35.986,16.144-35.986,35.987
		c0,19.842,16.143,35.986,35.986,35.986s35.986-16.144,35.986-35.986C128.998,34.083,112.854,17.938,93.012,17.938 M93.012,77.934
		c-13.238,0-24.009-10.771-24.009-24.008c0-13.238,10.771-24.009,24.009-24.009c13.238,0,24.009,10.771,24.009,24.009
		C117.021,67.163,106.25,77.934,93.012,77.934"/>
</g>
</svg>
