<?xml version="1.0" encoding="utf-8"?>
<!-- Generator: Adobe Illustrator 22.1.0, SVG Export Plug-In . SVG Version: 6.00 Build 0)  -->
<svg version="1.1" id="Layer_1" xmlns="http://www.w3.org/2000/svg" xmlns:xlink="http://www.w3.org/1999/xlink" x="0px" y="0px"
	 width="160.3px" height="163.4px" viewBox="0 0 160.3 163.4" style="enable-background:new 0 0 160.3 163.4;" xml:space="preserve"
	>
<style type="text/css">
	.st0{fill:#1F7F95;stroke:#1F7F95;stroke-width:3;stroke-miterlimit:10;}
	.st1{fill:#1F7F95;stroke:#1F7F95;stroke-width:5;stroke-miterlimit:10;}
	.st2{fill:#1F7F95;}
	.st3{fill:#1F7F95;stroke:#1F7F95;stroke-miterlimit:10;}
</style>
<path class="st3" d="M155.3,90.8l-13.8-26c-0.7-1.2-1.9-2-3.2-1.9c0-0.2,0.1-0.5,0.1-0.7C138.3,30,112.2,3.9,80,3.9
	S21.8,30,21.8,62.1c0,0.3,0,0.6,0.1,0.8c-1,0.2-1.9,0.9-2.4,1.8l-13.8,26c-0.5,0.9-0.6,1.9-0.2,2.9c0.3,1,1,1.7,1.9,2.2l11.9,5.6
	v26.3c0,1.4,0.8,2.7,2.1,3.3l57.6,27.8c0.5,0.2,1.1,0.4,1.6,0.4c0.5,0,1.1-0.1,1.6-0.4c0,0,0,0,0,0l57.6-27.8
	c1.3-0.6,2.1-1.9,2.1-3.3v-26.4l11.6-5.5c0.9-0.4,1.6-1.2,1.9-2.2C155.8,92.7,155.7,91.7,155.3,90.8z M80.5,84l-21.9-8.1
	c-0.4-3.3-0.7-6.7-0.8-10.1h44.4c-0.1,3.9-0.5,7.2-1,10.5L80.5,84z M41.1,29.4c3.7,3.3,7.7,6.1,12,8.4c-1.5,6.4-2.3,13.4-2.6,20.7
	H29.3C30.1,47.4,34.4,37.4,41.1,29.4z M130.8,58.5h-21.2c-0.2-7.2-1.1-14.2-2.6-20.7c4.3-2.2,8.3-5,12-8.4
	C125.7,37.4,130,47.4,130.8,58.5z M102.3,58.5H57.8c0.2-6.2,0.9-12.1,2.1-17.6c6.4,2.3,13.2,3.6,20.2,3.6c7,0,13.8-1.2,20.2-3.6
	C101.4,46.3,102.1,52.3,102.3,58.5z M105.1,30.5c-1-3-2.1-5.9-3.4-8.5c-1.4-2.9-2.9-5.5-4.6-7.8c6.2,2.2,11.9,5.6,16.8,10
	C111.2,26.6,108.2,28.7,105.1,30.5z M95.1,25.1c1.3,2.6,2.3,5.5,3.3,8.6c-5.8,2.2-11.9,3.4-18.3,3.4c-6.4,0-12.6-1.2-18.3-3.4
	c0.9-3.1,2-5.9,3.3-8.6c4.2-8.8,9.7-13.9,15-13.9C85.4,11.2,90.9,16.3,95.1,25.1z M58.4,22c-1.3,2.7-2.4,5.5-3.4,8.5
	c-3.1-1.8-6.1-3.9-8.8-6.4c4.8-4.3,10.5-7.7,16.8-10C61.3,16.4,59.8,19,58.4,22z M50.5,65.8c0.1,2.4,0.2,4.8,0.4,7.2l-19.5-7.2H50.5
	z M109.6,65.8h20L109,73.4C109.3,71,109.5,68.6,109.6,65.8z M24.5,71.1l51,18.9l-11.2,24.7L14,90.9L24.5,71.1z M26.7,125.5V105
	l38,17.9c0.5,0.2,1,0.4,1.6,0.4c0.4,0,0.9-0.1,1.3-0.2c0.9-0.3,1.7-1,2.1-1.9l7.4-16.4v45.1L26.7,125.5z M134.6,125.5l-50.3,24.3
	v-44.5l7.1,15.8c0.4,0.9,1.2,1.6,2.1,1.9c0.4,0.2,0.8,0.2,1.3,0.2c0.5,0,1.1-0.1,1.6-0.4l38.2-18.1L134.6,125.5L134.6,125.5z
	 M96.6,114.7L85.4,90l51-18.9L147,90.9L96.6,114.7z"/>
</svg>
