<?xml version="1.0" encoding="utf-8"?>
<!-- Generator: Adobe Illustrator 23.0.0, SVG Export Plug-In . SVG Version: 6.00 Build 0)  -->
<svg version="1.1" id="Layer_1" xmlns="http://www.w3.org/2000/svg" xmlns:xlink="http://www.w3.org/1999/xlink" x="0px" y="0px"
	 width="167px" height="167px" viewBox="0 0 167 167" style="enable-background:new 0 0 167 167;" xml:space="preserve">
<style type="text/css">
	.st0{clip-path:url(#SVGID_2_);fill:#217F95;}
	.st1{clip-path:url(#SVGID_4_);fill:none;stroke:#217F95;stroke-width:3;stroke-miterlimit:10;}
	.st2{fill:#217F95;stroke:#217F95;stroke-width:4;stroke-miterlimit:10;}
</style>
<g>
	<g>
		<defs>
			<rect id="SVGID_1_" width="167" height="167"/>
		</defs>
		<clipPath id="SVGID_2_">
			<use xlink:href="#SVGID_1_"  style="overflow:visible;"/>
		</clipPath>
		<path class="st0" d="M83.5,1.5c-45.3,0-82,36.7-82,82s36.7,82,82,82c45.3,0,82-36.7,82-82C165.5,38.2,128.8,1.6,83.5,1.5
			 M83.5,156.4c-40.3,0-72.9-32.6-72.9-72.9c0-40.3,32.6-72.9,72.9-72.9c40.3,0,72.9,32.6,72.9,72.9
			C156.4,123.8,123.7,156.4,83.5,156.4"/>
	</g>
	<g>
		<defs>
			<rect id="SVGID_3_" width="167" height="167"/>
		</defs>
		<clipPath id="SVGID_4_">
			<use xlink:href="#SVGID_3_"  style="overflow:visible;"/>
		</clipPath>
		<path class="st1" d="M83.5,1.5c-45.3,0-82,36.7-82,82s36.7,82,82,82c45.3,0,82-36.7,82-82C165.5,38.2,128.8,1.6,83.5,1.5z
			 M83.5,156.4c-40.3,0-72.9-32.6-72.9-72.9c0-40.3,32.6-72.9,72.9-72.9c40.3,0,72.9,32.6,72.9,72.9
			C156.4,123.8,123.7,156.4,83.5,156.4z"/>
	</g>
	<g>
		<defs>
			<rect id="SVGID_5_" width="167" height="167"/>
		</defs>
		<clipPath id="SVGID_6_">
			<use xlink:href="#SVGID_5_"  style="overflow:visible;"/>
		</clipPath>
	</g>
	<g>
		<defs>
			<rect id="SVGID_7_" width="167" height="167"/>
		</defs>
		<clipPath id="SVGID_8_">
			<use xlink:href="#SVGID_7_"  style="overflow:visible;"/>
		</clipPath>
	</g>
</g>
<g>
	<g>
		<path class="st2" d="M109.8,70.4c-0.3-0.6-0.8-0.9-1.4-0.9H90.1l18.2-28.7c0.3-0.5,0.3-1.1,0-1.6s-0.8-0.8-1.4-0.8H82
			c-0.6,0-1.1,0.3-1.4,0.8L57.3,85.8c-0.3,0.5-0.3,1.1,0,1.6c0.3,0.5,0.9,0.8,1.4,0.8h16l-17.4,41.4c-0.3,0.6,0,1.4,0.6,1.9
			c0.2,0.2,0.5,0.2,0.8,0.2c0.5,0,0.9-0.2,1.2-0.5l49.7-59C109.9,71.7,110.1,71.1,109.8,70.4z M64.1,121.2L78.4,87
			c0.2-0.5,0.2-0.9-0.2-1.4C78,85.3,77.5,85,77,85H61.2l21.7-43.5H104L85.7,70.3c-0.3,0.5-0.3,1.1,0,1.6c0.3,0.5,0.8,0.8,1.4,0.8h18
			L64.1,121.2z"/>
	</g>
</g>
</svg>
